{
   "name": "row_to_csv",
   "abstract": "A short description",
   "description": "A long description",
   "version": "0.0.1",
   "maintainer": "The maintainer's name",
   "license": "postgresql",
   "provides": {
      "row_to_csv": {
         "abstract": "A short description",
         "file": "sql/row_to_csv.sql",
         "docfile": "doc/row_to_csv.md",
         "version": "0.0.1"
      }
   },
   "release_status": "unstable",

   "generated_by": "The maintainer's name",


   "meta-spec": {
      "version": "1.0.0",
      "url": "http://pgxn.org/meta/spec.txt"
   }
}
